<?xml version="1.0" encoding="utf-8"?>
<!-- Generator: Adobe Illustrator 22.1.0, SVG Export Plug-In . SVG Version: 6.00 Build 0)  -->
<svg version="1.1" id="Calque_2" xmlns="http://www.w3.org/2000/svg" xmlns:xlink="http://www.w3.org/1999/xlink" x="0px" y="0px"
	 viewBox="0 0 511.836 226.354" enable-background="new 0 0 511.836 226.354" xml:space="preserve">
<g>
	<g>
		<g>
			<path fill="#009EFF" d="M0.359,78.035c0,34.145,19.259,42.41,51.47,42.41h57.338c32.21,0,51.943-8.266,51.943-42.41V59.517
				l-37.596,2.973v4.432c0,16.911-3.236,23.708-20.146,23.708h-45.74c-14.797,0-19.754-5.203-20.762-17.834L0.359,78.035z"/>
			<path fill="#009EFF" d="M36.865,72.796"/>
			<path fill="#009EFF" d="M262.366,52.306l-23.56,66.639h-41.07L177.53,56.359l32.193-1.945l9.917,33.609l11.94-34.157
				L262.366,52.306z M299.713,50.785l13.019,37.238l11.072-38.145l33.489-0.434l-22.658,69.501h-41.069l-24.1-67.373L299.713,50.785
				z"/>
		</g>
		<path fill="#FF6600" d="M507.856,50.696c-2.512,20.86-12.77,25.152-47.287,27.018l-36.881,1.933
			c-14.979,0.806-17.231,3.705-17.231,14.173h103.719v25.126H373.6V79.324c0-14.334,9.341-23.835,32.373-25.447l40.909-2.576
			c8.743-0.54,14.755-0.953,18.884-1.692L507.856,50.696z"/>
		<g>
			<g>
				<path fill="#33BBFF" d="M98.883,1.179H51.828c-32.211,0-51.47,7.925-51.47,42.068v34.788c0,0.265,0.024,0.531,0.026,0.794
					c11.951-1.907,23.902-3.715,36.57-5.456c-0.16-1.947-0.298-4.114-0.298-6.451V54.361c0-14.494,4.058-23.365,22.9-23.365h41.876
					c2.6,0,5.088,0.175,7.127,0.503L98.883,1.179z"/>
				<path fill="#33BBFF" d="M128.346,59.166l-4.832,3.252v0.894c12.965-1.16,24.631-2.248,37.596-3.266V43.247
					c0-2.063-0.076-4.025-0.218-5.9L128.346,59.166z"/>
			</g>
			<g>
				<path fill="#33BBFF" d="M356.82,50.667l15.664-48.191h-34.95l-14.185,48.969C334.418,51.144,345.576,50.861,356.82,50.667z"/>
				<path fill="#33BBFF" d="M270.327,52.922c9.797-0.429,19.683-0.598,29.645-0.94L282.774,2.476h-33.178l-18.271,52.613
					c10.092-0.57,20.291-1.312,30.586-1.789l4.113-11.933L270.327,52.922z"/>
				<path fill="#33BBFF" d="M210.492,56.489L194.838,2.476h-34.95l18.282,56.288C188.808,57.964,199.586,57.184,210.492,56.489z"/>
			</g>
		</g>
		<path fill="#FF8533" d="M407.42,40.509c0-12.078,4.674-14.698,19.812-14.698h23.678c22.869,0,23.835,2.276,23.835,11.779
			c0,9.151-1.148,11.378-14.978,12.692c16.171,0.207,32.181,0.57,48.001,0.997c0.588-4.489,0.799-9.669,0.799-15.882
			c0-24.319-8.697-34.219-42.199-34.219H419.34c-32.211,0-45.627,7.603-45.627,30.635v13.443h33.707L407.42,40.509L407.42,40.509z"
			/>
		<polygon fill="#FF6600" points="158.373,28.288 149.577,1.186 107.184,1.186 123.785,52.335 		"/>
	</g>
	<g>
		<path fill="#008ADE" d="M1.009,157.098h7.998v8.742H1.009V157.098z M1.009,177h7.998v47.432H1.009V177z"/>
		<path fill="#008ADE" d="M28.815,177h7.44v8.185h0.186c2.976-7.347,9.208-8.928,19.159-8.928h11.997
			c14.974,0,19.717,7.533,19.717,16.089v32.086h-7.999v-30.133c0-6.976-1.953-11.532-17.484-11.532h-2.046
			c-18.693,0-22.972,3.534-22.972,14.694v26.971h-7.998V177z"/>
		<path fill="#008ADE" d="M107.119,157.098h7.998v8.742h-7.998V157.098z M107.119,177h7.998v47.432h-7.998V177z"/>
		<path fill="#008ADE" d="M139.203,183.511h-10.417V177h10.417v-11.253h7.998V177h31.714v6.511h-31.714v23.622
			c0,8.836,3.069,11.532,11.811,11.532h2.511c10.602,0,12.276-2.231,12.276-12.183v-3.534h6.51v5.208
			c0,9.486-0.93,17.02-18.229,17.02h-4.371c-14.974,0-18.507-7.254-18.507-14.974V183.511z"/>
		<path fill="#008ADE" d="M194.816,157.098h7.998v8.742h-7.998V157.098z M194.816,177h7.998v47.432h-7.998V177z"/>
		<path fill="#008ADE" d="M271.634,219.689h-0.186c-2.139,4.278-4.65,5.487-16.926,5.487h-19.159
			c-12.09,0-15.252-5.301-15.252-14.229v-3.162c0-10.788,7.626-12.09,21.577-12.09h12.834c10.416,0,14.136,1.115,16.926,5.673h0.186
			v-8.929c0-8.556-5.394-9.672-17.67-9.672h-11.718c-10.044,0-11.998,2.418-11.998,6.324v1.674h-7.998v-2.325
			c0-8.649,5.487-12.183,19.81-12.183h12.648c14.88,0,24.924,2.231,24.924,16.368v31.807h-7.998V219.689z M271.634,209.552
			c0-6.511-5.766-7.348-18.042-7.348h-12.276c-10.323,0-13.206,1.488-13.206,7.44v1.487c0,5.302,1.86,7.533,12.834,7.533h10.603
			c14.508,0,20.088-1.022,20.088-6.975V209.552z"/>
		<path fill="#008ADE" d="M301.672,183.511h-10.417V177h10.417v-11.253h7.998V177h31.714v6.511H309.67v23.622
			c0,8.836,3.069,11.532,11.811,11.532h2.511c10.602,0,12.276-2.231,12.276-12.183v-3.534h6.51v5.208
			c0,9.486-0.93,17.02-18.229,17.02h-4.371c-14.974,0-18.507-7.254-18.507-14.974V183.511z"/>
		<path fill="#008ADE" d="M357.285,157.098h7.998v8.742h-7.998V157.098z M357.285,177h7.998v47.432h-7.998V177z"/>
		<path fill="#008ADE" d="M378.115,177h8.463l23.065,40.922L432.708,177h8.463l-26.785,47.432H404.9L378.115,177z"/>
		<path fill="#008ADE" d="M450.747,195.415c0-17.205,11.904-19.158,23.25-19.158h12.834c14.322,0,24.646,3.627,24.646,20.553v5.302
			h-52.732v2.976c0,10.788,5.208,13.578,19.159,13.578h10.974c10.044,0,14.137-1.302,14.602-8.556h7.998v0.93
			c0,10.882-9.021,14.137-23.901,14.137h-14.508c-10.417,0-22.321-1.953-22.321-19.438V195.415z M503.48,192.439
			c0-4.836-3.627-9.672-16.647-9.672h-11.718c-12.648,0-15.625,2.046-16.369,12.834h44.734V192.439z"/>
	</g>
	<line fill="none" stroke="#008ADE" stroke-width="7" stroke-miterlimit="10" x1="0.358" y1="143.398" x2="510.176" y2="143.398"/>
</g>
</svg>
